{
  "schemaVersion": 1,
  "id": "collectionofstupidthings",
  "version": "${version}",
  "name": "StupidThings",
  "description": "A collection of Random/Stupid things.",
  "authors": [
    "Matty45/Matthew"
  ],
  "contact": {},
  "license": "AGPL-3.0",
  "icon": "assets/collectionofstupidthings/icon.png",
  "environment": "*",
  "entrypoints": {
    "main": [
      "stupidthings.StupidThings"
    ],
    "client": [
      {
        "value": "stupidthings.StupidThingsClient"
      }
    ]
  },
  "depends": {
    "fabricloader": ">=0.4.0",
    "fabric": "*"
  }
}
